0,1
0.01,1
0.02,1
0.03,1
0.04,1
0.05,1
0.06,1
0.07,1
0.08,1
0.09,1
0.1,1
0.11,1
0.12,1
0.13,1
0.14,1
0.15,1
0.16,1
0.17,1
0.18,1
0.19,1
0.2,1
0.21,1
0.22,1
0.23,1
0.24,1
0.25,1
0.26,1
0.27,1
0.28,2
0.29,2
0.3,2
0.31,2
0.32,2
0.33,2
0.34,2
0.35,2
0.36,2
0.37,2
0.38,2
0.39,2
0.4,3
0.41,3
0.42,3
0.43,3
0.44,3
0.45,3
0.46,3
0.47,3
0.48,4
0.49,4
0.5,4
0.51,4
0.52,4
0.53,4
0.54,4
0.55,5
0.56,5
0.57,5
0.58,5
0.59,6
0.6,6
0.61,6
0.62,6
0.63,7
0.64,7
0.65,7
0.66,8
0.67,8
0.68,8
0.69,9
0.7,9
0.71,10
0.72,10
0.73,11
0.74,12
0.75,12
0.76,13
0.77,14
0.78,15
0.79,16
0.8,17
0.81,18
0.82,20
0.83,21
0.84,23
0.85,25
0.86,28
0.87,31
0.88,34
0.89,38
0.9,43
0.91,49
0.92,57
0.93,68
0.94,82
0.95,103
0.96,135
0.97,190
0.98,307
0.99,687
